{
  "developmentRegion" : "en",
  "project" : "WallInfo.xcodeproj",
  "targetLocale" : "cs",
  "toolInfo" : {
    "toolBuildNumber" : "14E222b",
    "toolID" : "com.apple.dt.xcode",
    "toolName" : "Xcode",
    "toolVersion" : "14.3"
  },
  "version" : "1.0"
}