[
  {
    "libraryIdentifier" : "bfd9ab48da241a0975bbb74aa663a935",
    "format" : "model",
    "displayName" : "bolt.usdz"
  },
  {
    "libraryIdentifier" : "4d1d4998b873366f2f965f6c7df445d8",
    "format" : "model",
    "displayName" : "bolt.usdz"
  },
  {
    "libraryIdentifier" : "7726aaa5485ca751e5fa4115dc7cd0cb",
    "format" : "model",
    "displayName" : "waterDrop.usdz"
  },
  {
    "libraryIdentifier" : "c164520983ba9debb5f0bf2c31b82c6d",
    "format" : "model",
    "displayName" : "waterDrop.usdz"
  },
  {
    "libraryIdentifier" : "6447299c86485bea02d536551fd61a57",
    "format" : "model",
    "displayName" : "questionmark.usdz"
  },
  {
    "libraryIdentifier" : "57a1adc67155ccd1bbc4be7663349c9d",
    "format" : "model",
    "displayName" : "internet.usdz"
  },
  {
    "libraryIdentifier" : "7efe879dfed1fd1cbc30058fa23ef4d7",
    "format" : "model",
    "displayName" : "flame.usdz"
  }
]